…
``` r
# load the data
library(p8105.datasets)
data("instacart") 
instacart 
```

    ## # A tibble: 1,384,617 x 15
    ##    order_id product_id add_to_cart_ord~ reordered user_id eval_set
    ##       <int>      <int>            <int>     <int>   <int> <chr>   
    ##  1        1      49302                1         1  112108 train   
    ##  2        1      11109                2         1  112108 train   
    ##  3        1      10246                3         0  112108 train   
    ##  4        1      49683                4         0  112108 train   
    ##  5        1      43633                5         1  112108 train   
    ##  6        1      13176                6         0  112108 train   
    ##  7        1      47209                7         0  112108 train   
    ##  8        1      22035                8         1  112108 train   
    ##  9       36      39612                1         0   79431 train   
    ## 10       36      19660                2         1   79431 train   
    ## # ... with 1,384,607 more rows, and 9 more variables: order_number <int>,
    ## #   order_dow <int>, order_hour_of_day <int>,
    ## #   days_since_prior_order <int>, product_name <chr>, aisle_id <int>,
    ## #   department_id <int>, aisle <chr>, department <chr>
…
``` r
#How many aisles are there, and which aisles are the most items ordered from?
 instacart %>% 
  count(aisle) %>% 
  arrange(desc(n))
```

    ## # A tibble: 134 x 2
    ##    aisle                              n
    ##    <chr>                          <int>
    ##  1 fresh vegetables              150609
    ##  2 fresh fruits                  150473
    ##  3 packaged vegetables fruits     78493
    ##  4 yogurt                         55240
    ##  5 packaged cheese                41699
    ##  6 water seltzer sparkling water  36617
    ##  7 milk                           32644
    ##  8 chips pretzels                 31269
    ##  9 soy lactosefree                26240
    ## 10 bread                          23635
    ## # ... with 124 more rows
…
brfss = brfss_smart2010 %>% 
  janitor::clean_names() %>% 
  filter(topic == "Overall Health") %>% 
  drop_na(response) %>% 
  mutate(
    response = as.factor(response),
    response = factor(response, levels =  c("Excellent", "Very good", "Good", "Fair", "Poor"))
  ) %>% 
  select(-data_value_footnote, -location_id, -data_value_footnote_symbol) %>% 
  rename(state = locationabbr,
         county = locationdesc)
brfss 
```

    ## # A tibble: 10,625 x 20
    ##     year state county class topic question response sample_size data_value
    ##    <int> <chr> <chr>  <chr> <chr> <chr>    <fct>          <int>      <dbl>
    ##  1  2010 AL    AL - ~ Heal~ Over~ How is ~ Excelle~          94       18.9
    ##  2  2010 AL    AL - ~ Heal~ Over~ How is ~ Very go~         148       30  
    ##  3  2010 AL    AL - ~ Heal~ Over~ How is ~ Good             208       33.1
    ##  4  2010 AL    AL - ~ Heal~ Over~ How is ~ Fair             107       12.5
    ##  5  2010 AL    AL - ~ Heal~ Over~ How is ~ Poor              45        5.5
    ##  6  2010 AL    AL - ~ Heal~ Over~ How is ~ Excelle~          91       15.6
    ##  7  2010 AL    AL - ~ Heal~ Over~ How is ~ Very go~         177       31.3
    ##  8  2010 AL    AL - ~ Heal~ Over~ How is ~ Good             224       31.2
    ##  9  2010 AL    AL - ~ Heal~ Over~ How is ~ Fair             120       15.5
    ## 10  2010 AL    AL - ~ Heal~ Over~ How is ~ Poor              66        6.4
    ## # ... with 10,615 more rows, and 11 more variables:
    ## #   confidence_limit_low <dbl>, confidence_limit_high <dbl>,
    ## #   display_order <int>, data_value_unit <chr>, data_value_type <chr>,
    ## #   data_source <chr>, class_id <chr>, topic_id <chr>, question_id <chr>,
    ## #   respid <chr>, geo_location <chr>
…
    ## Parsed with column specification:
    ## cols(
    ##   .default = col_double(),
    ##   day = col_character()
    ## )

    ## See spec(...) for full column specifications.

``` r
accel
```

    ## # A tibble: 35 x 1,443
    ##     week day_id day   activity.1 activity.2 activity.3 activity.4
    ##    <dbl>  <dbl> <chr>      <dbl>      <dbl>      <dbl>      <dbl>
    ##  1     1      1 Frid~       88.4       82.2       64.4       70.0
    ##  2     1      2 Mond~        1          1          1          1  
    ##  3     1      3 Satu~        1          1          1          1  
    ##  4     1      4 Sund~        1          1          1          1  
    ##  5     1      5 Thur~       47.4       48.8       46.9       35.8
    ##  6     1      6 Tues~       64.8       59.5       73.7       45.7
    ##  7     1      7 Wedn~       71.1      103.        68.5       45.4
    ##  8     2      8 Frid~      675        542       1010        779  
    ##  9     2      9 Mond~      291        335        393        335  
    ## 10     2     10 Satu~       64         11          1          1  
    ## # ... with 25 more rows, and 1,436 more variables: activity.5 <dbl>,
    ## #   activity.6 <dbl>, activity.7 <dbl>, activity.8 <dbl>,
    ## #   activity.9 <dbl>, activity.10 <dbl>, activity.11 <dbl>,
    ## #   activity.12 <dbl>, activity.13 <dbl>, activity.14 <dbl>,
    ## #   activity.15 <dbl>, activity.16 <dbl>, activity.17 <dbl>,
    ## #   activity.18 <dbl>, activity.19 <dbl>, activity.20 <dbl>,
    ## #   activity.21 <dbl>, activity.22 <dbl>, activity.23 <dbl>,
    ## #   activity.24 <dbl>, activity.25 <dbl>, activity.26 <dbl>,
    ## #   activity.27 <dbl>, activity.28 <dbl>, activity.29 <dbl>,
…
``` r
#clean data
tidy_accel = accel %>% 
  janitor::clean_names() %>% 
  mutate(
    new_day = if_else(day %in% c("Monday", "Tuesday", "Wednesday", "Thursday", "Friday"), "weekday", day),
    new_day = if_else(day %in% c("Saturday", "Sunday"), "weekend", new_day)
  ) %>% 
select(week, day_id, day, new_day, activity_1:activity_1440)
  
  
tidy_accel
```

    ## # A tibble: 35 x 1,444
    ##     week day_id day   new_day activity_1 activity_2 activity_3 activity_4
    ##    <dbl>  <dbl> <chr> <chr>        <dbl>      <dbl>      <dbl>      <dbl>
    ##  1     1      1 Frid~ weekday       88.4       82.2       64.4       70.0
    ##  2     1      2 Mond~ weekday        1          1          1          1  
    ##  3     1      3 Satu~ weekend        1          1          1          1  
    ##  4     1      4 Sund~ weekend        1          1          1          1  
    ##  5     1      5 Thur~ weekday       47.4       48.8       46.9       35.8
    ##  6     1      6 Tues~ weekday       64.8       59.5       73.7       45.7
    ##  7     1      7 Wedn~ weekday       71.1      103.        68.5       45.4
    ##  8     2      8 Frid~ weekday      675        542       1010        779  
    ##  9     2      9 Mond~ weekday      291        335        393        335  
    ## 10     2     10 Satu~ weekend       64         11          1          1  
    ## # ... with 25 more rows, and 1,436 more variables: activity_5 <dbl>,
    ## #   activity_6 <dbl>, activity_7 <dbl>, activity_8 <dbl>,
    ## #   activity_9 <dbl>, activity_10 <dbl>, activity_11 <dbl>,
    ## #   activity_12 <dbl>, activity_13 <dbl>, activity_14 <dbl>,
    ## #   activity_15 <dbl>, activity_16 <dbl>, activity_17 <dbl>,
    ## #   activity_18 <dbl>, activity_19 <dbl>, activity_20 <dbl>,
    ## #   activity_21 <dbl>, activity_22 <dbl>, activity_23 <dbl>,
    ## #   activity_24 <dbl>, activity_25 <dbl>, activity_26 <dbl>,
    ## #   activity_27 <dbl>, activity_28 <dbl>, activity_29 <dbl>,
…
    ## Warning: NAs introduced by coercion

``` r
tidy_accel_2
```

    ## # A tibble: 50,400 x 6
    ##     week day_id day    day_activity counts new_day
    ##    <dbl>  <dbl> <chr>         <int>  <dbl> <chr>  
    ##  1     1      1 Friday           NA   88.4 weekday
    ##  2     1      1 Friday           NA   82.2 weekday
    ##  3     1      1 Friday           NA   64.4 weekday
    ##  4     1      1 Friday           NA   70.0 weekday
    ##  5     1      1 Friday           NA   75.0 weekday
    ##  6     1      1 Friday           NA   66.3 weekday
    ##  7     1      1 Friday           NA   53.8 weekday
    ##  8     1      1 Friday           NA   47.8 weekday
    ##  9     1      1 Friday           NA   55.5 weekday
    ## 10     1      1 Friday           NA   43.0 weekday
    ## # ... with 50,390 more rows
…
